module GhostInTheNetwork

go 1.17

require (
	github.com/google/gopacket v1.1.19
	github.com/songgao/water v0.0.0-20200317203138-2b4b6d7c09d8
)

require golang.org/x/sys v0.0.0-20190412213103-97732733099d // indirect
